digraph G {
graph [label="Step 17. git checkout master"]
subgraph clusterRepository {
graph [bgcolor=gray90, label="Repository"]
HEAD [style=filled,fontcolor=black,fillcolor=white]
HEAD -> "refs/heads/master"
"refs/heads/experimental" [style=filled,fontcolor=white,fillcolor=black,shape=rectangle,label="refs/heads/\nexperimental"]
"refs/heads/experimental" -> "352b91f3"
"refs/heads/master" [style=filled,fontcolor=white,fillcolor=black,shape=rectangle,label="refs/heads/\nmaster"]
"refs/heads/master" -> "52e3957d"
"refs/tags/v0" [style=filled,fontcolor=white,fillcolor=gray40,shape=rectangle,label="refs/tags/\nv0"]
"refs/tags/v0" -> "373af687"
"489822c9" [shape=box,style="filled",fillcolor="0.25 0.5 1.0",label="Tree\n489822c9"]
"489822c9" -> "f30c75dd" [label="test.txt"]
"07607b5a" [shape=box,style="filled",fillcolor="0.0 0.5 1.0",label="Blob\n07607b5a\nclass Go {...}"]
"217f9d19" [shape=box,style="filled",fillcolor="0.75 0.5 1.0",label="Commit\n217f9d19\nsetup structure"]
"217f9d19" -> "9048a9d3"
"217f9d19" -> "764d675a" [style=dashed]
"d8d136fe" [shape=box,style="filled",fillcolor="0.25 0.5 1.0",label="Tree\nd8d136fe"]
"d8d136fe" -> "07607b5a" [label="Go.java"]
"d8d136fe" -> "b44f7e89" [label="ch"]
"b44f7e89" [shape=box,style="filled",fillcolor="0.25 0.5 1.0",label="Tree\nb44f7e89"]
"b44f7e89" -> "f30c75dd" [label="hello.txt"]
"ea9da75d" [shape=box,style="filled",fillcolor="0.0 0.5 1.0",label="Blob\nea9da75d\ncomplex code"]
"005d4e71" [shape=box,style="filled",fillcolor="0.25 0.5 1.0",label="Tree\n005d4e71"]
"005d4e71" -> "ea9da75d" [label="experiment.txt"]
"005d4e71" -> "d8d136fe" [label="src"]
"005d4e71" -> "f30c75dd" [label="test.txt"]
"764d675a" [shape=box,style="filled",fillcolor="0.75 0.5 1.0",label="Commit\n764d675a\ninitial commit"]
"764d675a" -> "489822c9"
"9048a9d3" [shape=box,style="filled",fillcolor="0.25 0.5 1.0",label="Tree\n9048a9d3"]
"9048a9d3" -> "d8d136fe" [label="src"]
"9048a9d3" -> "f30c75dd" [label="test.txt"]
"52e3957d" [shape=box,style="filled",fillcolor="0.75 0.5 1.0",label="Commit\n52e3957d\nadd new text"]
"52e3957d" -> "24181428"
"52e3957d" -> "217f9d19" [style=dashed]
"373af687" [shape=box,style="filled",fillcolor="0.5 0.5 1.0",label="Tag\n373af687\nfreshly initialized repository"]
"373af687" -> "764d675a"
"d9ba38d9" [shape=box,style="filled",fillcolor="0.0 0.5 1.0",label="Blob\nd9ba38d9\nsome text"]
"352b91f3" [shape=box,style="filled",fillcolor="0.75 0.5 1.0",label="Commit\n352b91f3\nadd experimental stuff"]
"352b91f3" -> "005d4e71"
"352b91f3" -> "217f9d19" [style=dashed]
"24181428" [shape=box,style="filled",fillcolor="0.25 0.5 1.0",label="Tree\n24181428"]
"24181428" -> "d9ba38d9" [label="new.txt"]
"24181428" -> "d8d136fe" [label="src"]
"24181428" -> "f30c75dd" [label="test.txt"]
"f30c75dd" [shape=box,style="filled",fillcolor="0.0 0.5 1.0",label="Blob\nf30c75dd\nhello world!"]
}
subgraph clusterWorkingDirectory {
graph [bgcolor=gray90, label="Working Directory"]
file0 [label="Directory",shape=box,style="filled",fillcolor="0.375 0.5 1.0"]
file0 -> file1 [label="src"]
file1 [label="Directory",shape=box,style="filled",fillcolor="0.375 0.5 1.0"]
file1 -> file2 [label="Go.java"]
file2 [label="Regular File\nclass Go {...}",shape=box,style="filled",fillcolor="0.125 0.5 1.0"]
file1 -> file3 [label="ch"]
file3 [label="Directory",shape=box,style="filled",fillcolor="0.375 0.5 1.0"]
file3 -> file4 [label="hello.txt"]
file4 [label="Regular File\nhello world!",shape=box,style="filled",fillcolor="0.125 0.5 1.0"]
file0 -> file5 [label="new.txt"]
file5 [label="Regular File\nsome text",shape=box,style="filled",fillcolor="0.125 0.5 1.0"]
file0 -> file6 [label="test.txt"]
file6 [label="Regular File\nhello world!",shape=box,style="filled",fillcolor="0.125 0.5 1.0"]
}
}
